
Average timings:
Single pivot: 4383598.450000
Dual pivot: 3498604.050000


Average timings:
Single pivot: 4374227.550000
Dual pivot: 3511231.050000


Average timings:
Single pivot: 4375674.200000
Dual pivot: 3475359.800000


Average timings:
Single pivot: 4377797.650000
Dual pivot: 3485650.500000


Average timings:
Single pivot: 4403694.350000
Dual pivot: 3477448.200000

