
Average timings:
Single pivot: 10642.850000
Dual pivot: 7835.750000


Average timings:
Single pivot: 9306.950000
Dual pivot: 7912.250000


Average timings:
Single pivot: 9335.800000
Dual pivot: 7958.000000


Average timings:
Single pivot: 9356.050000
Dual pivot: 7839.150000


Average timings:
Single pivot: 9463.550000
Dual pivot: 7815.550000

