
Average timings:
Single pivot: 1086242.850000
Dual pivot: 906494.350000


Average timings:
Single pivot: 1087062.200000
Dual pivot: 901620.850000


Average timings:
Single pivot: 1086646.750000
Dual pivot: 906448.500000


Average timings:
Single pivot: 1087043.000000
Dual pivot: 911695.900000


Average timings:
Single pivot: 1086906.300000
Dual pivot: 909035.550000

